{
  "input_values": [
    {
      "id": 1216397,
      "input_id": 29840,
      "farm_id": 2414,
      "harvest_id": 695,
      "value": 0.0,
      "updated_at": "2019-09-16T12:27:22.000-03:00"
    },
    {
      "id": 1216403,
      "input_id": 29841,
      "farm_id": 2414,
      "harvest_id": 695,
      "value": 0.0,
      "updated_at": "2019-09-16T12:32:10.000-03:00"
    },
    {
      "id": 1216409,
      "input_id": 29842,
      "farm_id": 2414,
      "harvest_id": 695,
      "value": 0.0,
      "updated_at": "2019-09-16T12:33:40.000-03:00"
    },
    {
      "id": 1216419,
      "input_id": 29843,
      "farm_id": 2414,
      "harvest_id": 695,
      "value": 0.0,
      "updated_at": "2019-09-16T12:34:06.000-03:00"
    },
    {
      "id": 1216421,
      "input_id": 29844,
      "farm_id": 2414,
      "harvest_id": 695,
      "value": 0.0,
      "updated_at": "2019-09-16T12:35:22.000-03:00"
    },
    {
      "id": 1216431,
      "input_id": 29845,
      "farm_id": 2414,
      "harvest_id": 695,
      "value": 0.0,
      "updated_at": "2019-09-16T12:37:48.000-03:00"
    },
    {
      "id": 1216433,
      "input_id": 29846,
      "farm_id": 2414,
      "harvest_id": 695,
      "value": 0.0,
      "updated_at": "2019-09-16T12:38:36.000-03:00"
    },
    {
      "id": 1216441,
      "input_id": 29847,
      "farm_id": 2414,
      "harvest_id": 695,
      "value": 0.0,
      "updated_at": "2019-09-16T12:39:48.000-03:00"
    },
    {
      "id": 1216466,
      "input_id": 29849,
      "farm_id": 2414,
      "harvest_id": 695,
      "value": 0.0,
      "updated_at": "2019-09-16T12:44:20.000-03:00"
    },
    {
      "id": 1216474,
      "input_id": 29850,
      "farm_id": 2414,
      "harvest_id": 695,
      "value": 0.0,
      "updated_at": "2019-09-16T12:46:25.000-03:00"
    },
    {
      "id": 1216478,
      "input_id": 29851,
      "farm_id": 2414,
      "harvest_id": 695,
      "value": 0.0,
      "updated_at": "2019-09-16T12:46:51.000-03:00"
    },
    {
      "id": 1216486,
      "input_id": 29852,
      "farm_id": 2414,
      "harvest_id": 695,
      "value": 0.0,
      "updated_at": "2019-09-16T12:47:23.000-03:00"
    },
    {
      "id": 1216490,
      "input_id": 29853,
      "farm_id": 2414,
      "harvest_id": 695,
      "value": 0.0,
      "updated_at": "2019-09-16T12:49:29.000-03:00"
    },
    {
      "id": 1216496,
      "input_id": 29854,
      "farm_id": 2414,
      "harvest_id": 695,
      "value": 0.0,
      "updated_at": "2019-09-16T12:51:57.000-03:00"
    },
    {
      "id": 1216502,
      "input_id": 29855,
      "farm_id": 2414,
      "harvest_id": 695,
      "value": 0.0,
      "updated_at": "2019-09-16T12:54:26.000-03:00"
    }
  ],
  "next_page_url": "/api/v1/input_values?page=2",
  "pagination": {
    "total_entries": 7551,
    "total_pages": 504,
    "per_page": 15,
    "current_page": 1
  }
}