{
  "plots": [
    {
      "id": 25470,
      "name": "A01",
      "farm_id": 2414,
      "area": 661.0,
      "updated_at": "2026-04-09T15:32:28.000-03:00",
      "disabled_at": null,
      "geo_points": [
        {
          "latitude": "-9.40247036588214",
          "longitude": "-45.12207080159044"
        },
        {
          "latitude": "-9.417542643695604",
          "longitude": "-45.12679148945665"
        },
        {
          "latitude": "-9.425163208076233",
          "longitude": "-45.095463288162705"
        },
        {
          "latitude": "-9.407974363715018",
          "longitude": "-45.09357501301622"
        },
        {
          "latitude": "-9.400861488437828",
          "longitude": "-45.11906672749376"
        },
        {
          "latitude": "-9.402555043435132",
          "longitude": "-45.119925034378525"
        },
        {
          "latitude": "-9.401792944712065",
          "longitude": "-45.12198497090196"
        }
      ]
    },
    {
      "id": 25471,
      "name": "A02",
      "farm_id": 2414,
      "area": 482.0,
      "updated_at": "2026-04-09T15:32:27.000-03:00",
      "disabled_at": null,
      "geo_points": [
        {
          "latitude": "-9.399560424131755",
          "longitude": "-45.124949013438595"
        },
        {
          "latitude": "-9.394471084051153",
          "longitude": "-45.1443467490343"
        },
        {
          "latitude": "-9.412126313670878",
          "longitude": "-45.149153267588986"
        },
        {
          "latitude": "-9.417687935434516",
          "longitude": "-45.12682163689567"
        },
        {
          "latitude": "-9.401928866002908",
          "longitude": "-45.122072362796644"
        },
        {
          "latitude": "-9.401124426956953",
          "longitude": "-45.125291013614515"
        }
      ]
    },
    {
      "id": 25472,
      "name": "A05",
      "farm_id": 2414,
      "area": 572.0,
      "updated_at": "2026-05-27T08:55:10.000-03:00",
      "disabled_at": null,
      "geo_points": [
        {
          "latitude": "-9.400714722162355",
          "longitude": "-45.119046711713736"
        },
        {
          "latitude": "-9.40774292419496",
          "longitude": "-45.093383335859244"
        },
        {
          "latitude": "-9.389198323577952",
          "longitude": "-45.09149506071276"
        },
        {
          "latitude": "-9.38293188704861",
          "longitude": "-45.1155276534862"
        },
        {
          "latitude": "-9.397750979718431",
          "longitude": "-45.11913254240221"
        },
        {
          "latitude": "-9.398343730237354",
          "longitude": "-45.11818840482897"
        }
      ]
    },
    {
      "id": 25473,
      "name": "A03",
      "farm_id": 2414,
      "area": 472.0,
      "updated_at": "2026-04-09T15:32:28.000-03:00",
      "disabled_at": null,
      "geo_points": [
        {
          "latitude": "-9.394689313112204",
          "longitude": "-45.144455353051626"
        },
        {
          "latitude": "-9.38926978483455",
          "longitude": "-45.16514054897448"
        },
        {
          "latitude": "-9.40705229448711",
          "longitude": "-45.16986123684069"
        },
        {
          "latitude": "-9.412302194020292",
          "longitude": "-45.14926187160631"
        }
      ]
    },
    {
      "id": 25474,
      "name": "A04",
      "farm_id": 2414,
      "area": 470.0,
      "updated_at": "2026-04-09T15:32:28.000-03:00",
      "disabled_at": null,
      "geo_points": [
        {
          "latitude": "-9.389546296145824",
          "longitude": "-45.16526791623278"
        },
        {
          "latitude": "-9.384042005365982",
          "longitude": "-45.18578145077868"
        },
        {
          "latitude": "-9.401655428004945",
          "longitude": "-45.19075963071032"
        },
        {
          "latitude": "-9.407197441481458",
          "longitude": "-45.17003591407206"
        }
      ]
    },
    {
      "id": 25475,
      "name": "A06",
      "farm_id": 2414,
      "area": 529.0,
      "updated_at": "2026-04-09T15:32:30.000-03:00",
      "disabled_at": null,
      "geo_points": [
        {
          "latitude": "-9.383153467993573",
          "longitude": "-45.11559271588976"
        },
        {
          "latitude": "-9.390274645833665",
          "longitude": "-45.11745685115511"
        },
        {
          "latitude": "-9.396373576160736",
          "longitude": "-45.11886702254469"
        },
        {
          "latitude": "-9.395698127727577",
          "longitude": "-45.12130716219599"
        },
        {
          "latitude": "-9.396379530156732",
          "longitude": "-45.121724245697806"
        },
        {
          "latitude": "-9.395778837599888",
          "longitude": "-45.123851237446615"
        },
        {
          "latitude": "-9.39776482377617",
          "longitude": "-45.1243353761738"
        },
        {
          "latitude": "-9.39937173096783",
          "longitude": "-45.12496368363554"
        },
        {
          "latitude": "-9.394373689267065",
          "longitude": "-45.144238708168814"
        },
        {
          "latitude": "-9.376960092703898",
          "longitude": "-45.139629976360766"
        }
      ]
    },
    {
      "id": 25476,
      "name": "A07",
      "farm_id": 2414,
      "area": 459.0,
      "updated_at": "2026-04-10T11:28:34.000-03:00",
      "disabled_at": null,
      "geo_points": [
        {
          "latitude": "-9.389228549804233",
          "longitude": "-45.165269745430464"
        },
        {
          "latitude": "-9.39460573898597",
          "longitude": "-45.14441288813066"
        },
        {
          "latitude": "-9.376991957978019",
          "longitude": "-45.13969220026445"
        },
        {
          "latitude": "-9.37169918071977",
          "longitude": "-45.16054905756425"
        }
      ]
    },
    {
      "id": 25477,
      "name": "A08",
      "farm_id": 2414,
      "area": 376.0,
      "updated_at": "2026-04-09T15:32:30.000-03:00",
      "disabled_at": null,
      "geo_points": [
        {
          "latitude": "-9.383916984621376",
          "longitude": "-45.18582252969384"
        },
        {
          "latitude": "-9.389336596621636",
          "longitude": "-45.16522316445946"
        },
        {
          "latitude": "-9.37172254793244",
          "longitude": "-45.160674137970204"
        },
        {
          "latitude": "-9.36901261492123",
          "longitude": "-45.1713171433413"
        },
        {
          "latitude": "-9.377057666724074",
          "longitude": "-45.17397789468407"
        },
        {
          "latitude": "-9.374771197284552",
          "longitude": "-45.18333343972802"
        }
      ]
    },
    {
      "id": 25478,
      "name": "A09",
      "farm_id": 2414,
      "area": 474.0,
      "updated_at": "2026-04-09T15:32:29.000-03:00",
      "disabled_at": null,
      "geo_points": [
        {
          "latitude": "-9.366326861861955",
          "longitude": "-45.111152214081244"
        },
        {
          "latitude": "-9.383009680211824",
          "longitude": "-45.115357917816596"
        },
        {
          "latitude": "-9.389106753713067",
          "longitude": "-45.09158281710859"
        },
        {
          "latitude": "-9.366326861861955",
          "longitude": "-45.08857874301191"
        },
        {
          "latitude": "-9.365310623672189",
          "longitude": "-45.091926139862494"
        },
        {
          "latitude": "-9.367089038553214",
          "longitude": "-45.091926139862494"
        },
        {
          "latitude": "-9.36827464341523",
          "longitude": "-45.092870277435736"
        },
        {
          "latitude": "-9.369290872932641",
          "longitude": "-45.09475855258222"
        },
        {
          "latitude": "-9.369375558591518",
          "longitude": "-45.096646827728705"
        },
        {
          "latitude": "-9.372847652821392",
          "longitude": "-45.09802011874433"
        },
        {
          "latitude": "-9.373779184389385",
          "longitude": "-45.09930757907148"
        },
        {
          "latitude": "-9.37725123456948",
          "longitude": "-45.09999422457929"
        },
        {
          "latitude": "-9.378690854942551",
          "longitude": "-45.10128168490644"
        },
        {
          "latitude": "-9.379537687665364",
          "longitude": "-45.10282663729902"
        },
        {
          "latitude": "-9.379368321286195",
          "longitude": "-45.10428575900312"
        },
        {
          "latitude": "-9.37725123456948",
          "longitude": "-45.10445742038007"
        },
        {
          "latitude": "-9.37445666032305",
          "longitude": "-45.10359911349531"
        },
        {
          "latitude": "-9.370561155647206",
          "longitude": "-45.10299829867597"
        }
      ]
    },
    {
      "id": 25479,
      "name": "A10",
      "farm_id": 2414,
      "area": 445.0,
      "updated_at": "2026-04-09T15:32:31.000-03:00",
      "disabled_at": null,
      "geo_points": [
        {
          "latitude": "-9.3768199647021",
          "longitude": "-45.13975501754959"
        },
        {
          "latitude": "-9.383001829378026",
          "longitude": "-45.11546493271072"
        },
        {
          "latitude": "-9.366403697034286",
          "longitude": "-45.111173398286894"
        },
        {
          "latitude": "-9.364032470491672",
          "longitude": "-45.116409070283964"
        },
        {
          "latitude": "-9.368351478156674",
          "longitude": "-45.116666562349394"
        },
        {
          "latitude": "-9.371442499686824",
          "longitude": "-45.11731029251297"
        },
        {
          "latitude": "-9.367504618141279",
          "longitude": "-45.13194442489822"
        },
        {
          "latitude": "-9.36552639802901",
          "longitude": "-45.13185457089622"
        },
        {
          "latitude": "-9.363886914763734",
          "longitude": "-45.131249732763365"
        },
        {
          "latitude": "-9.362543829488045",
          "longitude": "-45.13077364066322"
        },
        {
          "latitude": "-9.361454801852556",
          "longitude": "-45.13029754856308"
        },
        {
          "latitude": "-9.360208304307557",
          "longitude": "-45.13041824796875"
        },
        {
          "latitude": "-9.360389589260146",
          "longitude": "-45.12927696803291"
        },
        {
          "latitude": "-9.359385242968743",
          "longitude": "-45.12899399498184"
        },
        {
          "latitude": "-9.358803011905925",
          "longitude": "-45.13050676086624"
        },
        {
          "latitude": "-9.357807923832077",
          "longitude": "-45.13421893814285"
        }
      ]
    },
    {
      "id": 25480,
      "name": "A11",
      "farm_id": 2414,
      "area": 442.0,
      "updated_at": "2026-04-09T15:32:31.000-03:00",
      "disabled_at": null,
      "geo_points": [
        {
          "latitude": "-9.371629115663891",
          "longitude": "-45.16078353622635"
        },
        {
          "latitude": "-9.376879552084334",
          "longitude": "-45.139840848238066"
        },
        {
          "latitude": "-9.35774048177284",
          "longitude": "-45.13451934555252"
        },
        {
          "latitude": "-9.356470152187265",
          "longitude": "-45.138381726533964"
        },
        {
          "latitude": "-9.357232350495535",
          "longitude": "-45.13906837204178"
        },
        {
          "latitude": "-9.355115128847565",
          "longitude": "-45.1499688694783"
        },
        {
          "latitude": "-9.356978284578412",
          "longitude": "-45.15099883774002"
        },
        {
          "latitude": "-9.357825170246851",
          "longitude": "-45.15177131393631"
        },
        {
          "latitude": "-9.358672053852459",
          "longitude": "-45.151857144624785"
        },
        {
          "latitude": "-9.357994547133007",
          "longitude": "-45.15503288009842"
        },
        {
          "latitude": "-9.36019643914364",
          "longitude": "-45.156577832490996"
        },
        {
          "latitude": "-9.360704566088481",
          "longitude": "-45.15529037216385"
        },
        {
          "latitude": "-9.364515494494087",
          "longitude": "-45.15417457321365"
        },
        {
          "latitude": "-9.363906527866282",
          "longitude": "-45.15802057768781"
        },
        {
          "latitude": "-9.36627775526851",
          "longitude": "-45.157848916310854"
        },
        {
          "latitude": "-9.365600263376551",
          "longitude": "-45.15896471526105"
        }
      ]
    },
    {
      "id": 25481,
      "name": "A12",
      "farm_id": 2414,
      "area": 131.0,
      "updated_at": "2026-04-09T15:32:29.000-03:00",
      "disabled_at": null,
      "geo_points": [
        {
          "latitude": "-9.369033394770048",
          "longitude": "-45.17121810368508"
        },
        {
          "latitude": "-9.371658642537724",
          "longitude": "-45.160789675035176"
        },
        {
          "latitude": "-9.365645948970354",
          "longitude": "-45.159030145921406"
        },
        {
          "latitude": "-9.365222515922598",
          "longitude": "-45.15941638401955"
        },
        {
          "latitude": "-9.364375648278822",
          "longitude": "-45.160532182969746"
        },
        {
          "latitude": "-9.35823579613932",
          "longitude": "-45.163579172410664"
        },
        {
          "latitude": "-9.357981730955443",
          "longitude": "-45.16718406132668"
        }
      ]
    },
    {
      "id": 25482,
      "name": "B01",
      "farm_id": 2414,
      "area": 434.0,
      "updated_at": "2026-04-09T15:32:28.000-03:00",
      "disabled_at": null,
      "geo_points": [
        {
          "latitude": "-9.413935363590985",
          "longitude": "-45.14378905990799"
        },
        {
          "latitude": "-9.416475596928874",
          "longitude": "-45.13177276352127"
        },
        {
          "latitude": "-9.447972937046897",
          "longitude": "-45.13177276352127"
        },
        {
          "latitude": "-9.444247595260945",
          "longitude": "-45.143617398531035"
        }
      ]
    },
    {
      "id": 25483,
      "name": "B02",
      "farm_id": 2414,
      "area": 425.0,
      "updated_at": "2026-04-10T11:24:33.000-03:00",
      "disabled_at": null,
      "geo_points": [
        {
          "latitude": "-9.416383444417415",
          "longitude": "-45.131697505016405"
        },
        {
          "latitude": "-9.418923659755297",
          "longitude": "-45.12199863721855"
        },
        {
          "latitude": "-9.451355390435031",
          "longitude": "-45.11993536377406"
        },
        {
          "latitude": "-9.447714751720744",
          "longitude": "-45.13177999878383"
        }
      ]
    },
    {
      "id": 25484,
      "name": "B03",
      "farm_id": 2414,
      "area": 284.0,
      "updated_at": "2026-04-10T11:26:15.000-03:00",
      "disabled_at": null,
      "geo_points": [
        {
          "latitude": "-9.44773370086777",
          "longitude": "-45.131795961849434"
        },
        {
          "latitude": "-9.451374339381656",
          "longitude": "-45.119779665462715"
        },
        {
          "latitude": "-9.468053051166455",
          "longitude": "-45.11883552788947"
        },
        {
          "latitude": "-9.468561019537784",
          "longitude": "-45.131538469784005"
        }
      ]
    }
  ],
  "next_page_url": "/api/v1/plots?page=2",
  "pagination": {
    "total_entries": 226,
    "total_pages": 16,
    "per_page": 15,
    "current_page": 1
  },
  "deleted_since": [
    25500,
    25498,
    22098,
    22188,
    35268,
    35296,
    69290,
    69293,
    69292,
    83440,
    136860
  ]
}