{
  "pluviometer_monitorings": [
    {
      "id": 265908,
      "quantity": 18.0,
      "user_id": 3368,
      "latitude": "-14.361991116825624",
      "longitude": "-45.55331008471683",
      "date": "2019-09-29T00:00:00.000-03:00",
      "updated_at": "2019-10-03T10:44:45.000-03:00",
      "pluviometer": {
        "id": 7907,
        "name": "PL 01 sede",
        "latitude": "-14.361991116825624",
        "longitude": "-45.55331008471683",
        "start_date": "2019-09-29",
        "updated_at": "2020-10-12T17:45:56.000-03:00",
        "farm_id": 2112,
        "farm": {
          "id": 2112,
          "name": "Celeiro Sementes - BA"
        }
      }
    },
    {
      "id": 265909,
      "quantity": 23.0,
      "user_id": 3368,
      "latitude": "-14.384107471397773",
      "longitude": "-45.56481139697269",
      "date": "2019-09-29T00:00:00.000-03:00",
      "updated_at": "2019-10-03T10:44:45.000-03:00",
      "pluviometer": {
        "id": 7914,
        "name": "PL 02",
        "latitude": "-14.384107471397773",
        "longitude": "-45.56481139697269",
        "start_date": "2019-09-29",
        "updated_at": "2020-10-12T17:47:14.000-03:00",
        "farm_id": 2112,
        "farm": {
          "id": 2112,
          "name": "Celeiro Sementes - BA"
        }
      }
    },
    {
      "id": 265910,
      "quantity": 18.0,
      "user_id": 3368,
      "latitude": "-14.41170827081785",
      "longitude": "-45.57270782031253",
      "date": "2019-09-29T00:00:00.000-03:00",
      "updated_at": "2019-10-03T10:44:45.000-03:00",
      "pluviometer": {
        "id": 7915,
        "name": "PL 03",
        "latitude": "-14.41170827081785",
        "longitude": "-45.57270782031253",
        "start_date": "2019-09-29",
        "updated_at": "2020-10-12T17:48:01.000-03:00",
        "farm_id": 2112,
        "farm": {
          "id": 2112,
          "name": "Celeiro Sementes - BA"
        }
      }
    },
    {
      "id": 265911,
      "quantity": 26.0,
      "user_id": 3368,
      "latitude": "-14.383941191181814",
      "longitude": "-45.5874706987305",
      "date": "2019-09-29T00:00:00.000-03:00",
      "updated_at": "2019-10-03T10:44:45.000-03:00",
      "pluviometer": {
        "id": 7916,
        "name": "PL 04",
        "latitude": "-14.383941191181814",
        "longitude": "-45.5874706987305",
        "start_date": "2019-09-29",
        "updated_at": "2020-10-12T17:49:32.000-03:00",
        "farm_id": 2112,
        "farm": {
          "id": 2112,
          "name": "Celeiro Sementes - BA"
        }
      }
    },
    {
      "id": 265912,
      "quantity": 20.0,
      "user_id": 3368,
      "latitude": "-14.363487781243126",
      "longitude": "-45.57253615893558",
      "date": "2019-09-29T00:00:00.000-03:00",
      "updated_at": "2019-10-03T10:44:45.000-03:00",
      "pluviometer": {
        "id": 7917,
        "name": "PL 05",
        "latitude": "-14.363487781243126",
        "longitude": "-45.57253615893558",
        "start_date": "2019-09-29",
        "updated_at": "2020-10-12T17:51:11.000-03:00",
        "farm_id": 2112,
        "farm": {
          "id": 2112,
          "name": "Celeiro Sementes - BA"
        }
      }
    },
    {
      "id": 265913,
      "quantity": 19.0,
      "user_id": 3368,
      "latitude": "-14.339041009466296",
      "longitude": "-45.54996268786624",
      "date": "2019-09-29T00:00:00.000-03:00",
      "updated_at": "2019-10-03T10:44:46.000-03:00",
      "pluviometer": {
        "id": 7918,
        "name": "PL 06",
        "latitude": "-14.339041009466296",
        "longitude": "-45.54996268786624",
        "start_date": "2019-09-29",
        "updated_at": "2020-10-12T17:52:15.000-03:00",
        "farm_id": 2112,
        "farm": {
          "id": 2112,
          "name": "Celeiro Sementes - BA"
        }
      }
    },
    {
      "id": 265914,
      "quantity": 11.0,
      "user_id": 3368,
      "latitude": "-14.31692020375549",
      "longitude": "-45.531165767089874",
      "date": "2019-09-29T00:00:00.000-03:00",
      "updated_at": "2019-10-03T10:44:46.000-03:00",
      "pluviometer": {
        "id": 7919,
        "name": "PL 07",
        "latitude": "-14.31692020375549",
        "longitude": "-45.531165767089874",
        "start_date": "2019-09-29",
        "updated_at": "2020-10-12T17:53:07.000-03:00",
        "farm_id": 2112,
        "farm": {
          "id": 2112,
          "name": "Celeiro Sementes - BA"
        }
      }
    },
    {
      "id": 265915,
      "quantity": 18.0,
      "user_id": 3368,
      "latitude": "-14.344196673155214",
      "longitude": "-45.527389216796905",
      "date": "2019-09-29T00:00:00.000-03:00",
      "updated_at": "2019-10-03T10:44:46.000-03:00",
      "pluviometer": {
        "id": 7920,
        "name": "PL 08",
        "latitude": "-14.344196673155214",
        "longitude": "-45.527389216796905",
        "start_date": "2019-09-29",
        "updated_at": "2020-10-12T17:55:24.000-03:00",
        "farm_id": 2112,
        "farm": {
          "id": 2112,
          "name": "Celeiro Sementes - BA"
        }
      }
    },
    {
      "id": 265916,
      "quantity": 19.0,
      "user_id": 3368,
      "latitude": "-14.367312544824008",
      "longitude": "-45.52618758715823",
      "date": "2019-09-29T00:00:00.000-03:00",
      "updated_at": "2019-10-03T10:44:46.000-03:00",
      "pluviometer": {
        "id": 7921,
        "name": "PL 09",
        "latitude": "-14.367312544824008",
        "longitude": "-45.52618758715823",
        "start_date": "2019-09-29",
        "updated_at": "2020-10-12T17:56:09.000-03:00",
        "farm_id": 2112,
        "farm": {
          "id": 2112,
          "name": "Celeiro Sementes - BA"
        }
      }
    },
    {
      "id": 265917,
      "quantity": 5.0,
      "user_id": 3368,
      "latitude": "-14.225669672393272",
      "longitude": "-45.43181674517825",
      "date": "2019-09-29T00:00:00.000-03:00",
      "updated_at": "2019-10-03T10:44:46.000-03:00",
      "pluviometer": {
        "id": 7925,
        "name": "PL 10",
        "latitude": "-14.225669672393272",
        "longitude": "-45.43181674517825",
        "start_date": "2019-09-29",
        "updated_at": "2020-01-02T14:24:02.000-03:00",
        "farm_id": 2112,
        "farm": {
          "id": 2112,
          "name": "Celeiro Sementes - BA"
        }
      }
    },
    {
      "id": 265918,
      "quantity": 6.0,
      "user_id": 3368,
      "latitude": "-14.214187957405683",
      "longitude": "-45.44542090930179",
      "date": "2019-09-29T00:00:00.000-03:00",
      "updated_at": "2019-10-03T10:44:46.000-03:00",
      "pluviometer": {
        "id": 7924,
        "name": "PL 11",
        "latitude": "-14.214187957405683",
        "longitude": "-45.44542090930179",
        "start_date": "2019-09-29",
        "updated_at": "2020-01-02T14:27:07.000-03:00",
        "farm_id": 2112,
        "farm": {
          "id": 2112,
          "name": "Celeiro Sementes - BA"
        }
      }
    },
    {
      "id": 265919,
      "quantity": 16.0,
      "user_id": 3368,
      "latitude": "-14.201291133308366",
      "longitude": "-45.454261470214874",
      "date": "2019-09-29T00:00:00.000-03:00",
      "updated_at": "2019-10-03T10:44:46.000-03:00",
      "pluviometer": {
        "id": 7923,
        "name": "PL 12",
        "latitude": "-14.201291133308366",
        "longitude": "-45.454261470214874",
        "start_date": "2019-09-29",
        "updated_at": "2020-01-02T14:26:44.000-03:00",
        "farm_id": 2112,
        "farm": {
          "id": 2112,
          "name": "Celeiro Sementes - BA"
        }
      }
    },
    {
      "id": 265920,
      "quantity": 12.0,
      "user_id": 3368,
      "latitude": "-14.184981839421964",
      "longitude": "-45.43709533251956",
      "date": "2019-09-29T00:00:00.000-03:00",
      "updated_at": "2019-10-03T10:44:46.000-03:00",
      "pluviometer": {
        "id": 7922,
        "name": "PL 13",
        "latitude": "-14.184981839421964",
        "longitude": "-45.43709533251956",
        "start_date": "2019-09-29",
        "updated_at": "2020-01-02T14:26:12.000-03:00",
        "farm_id": 2112,
        "farm": {
          "id": 2112,
          "name": "Celeiro Sementes - BA"
        }
      }
    },
    {
      "id": 265921,
      "quantity": 8.0,
      "user_id": 3368,
      "latitude": "-14.260859988973799",
      "longitude": "-45.421302485839874",
      "date": "2019-09-29T00:00:00.000-03:00",
      "updated_at": "2019-10-03T10:44:46.000-03:00",
      "pluviometer": {
        "id": 7927,
        "name": "PL 15",
        "latitude": "-14.260859988973799",
        "longitude": "-45.421302485839874",
        "start_date": "2019-09-29",
        "updated_at": "2020-01-02T14:30:51.000-03:00",
        "farm_id": 2112,
        "farm": {
          "id": 2112,
          "name": "Celeiro Sementes - BA"
        }
      }
    },
    {
      "id": 265922,
      "quantity": 10.0,
      "user_id": 3368,
      "latitude": "-14.287810559880565",
      "longitude": "-45.43057220019534",
      "date": "2019-09-29T00:00:00.000-03:00",
      "updated_at": "2019-10-03T10:44:46.000-03:00",
      "pluviometer": {
        "id": 7929,
        "name": "PL 16",
        "latitude": "-14.287810559880565",
        "longitude": "-45.43057220019534",
        "start_date": "2019-09-29",
        "updated_at": "2019-09-18T10:25:43.000-03:00",
        "farm_id": 2112,
        "farm": {
          "id": 2112,
          "name": "Celeiro Sementes - BA"
        }
      }
    }
  ],
  "next_page_url": "/api/v1/pluviometer_monitorings?page=2",
  "pagination": {
    "total_entries": 22345,
    "total_pages": 1490,
    "per_page": 15,
    "current_page": 1
  },
  "deleted_since": [
    263301,
    263304,
    263298,
    263299,
    263300,
    263296,
    263303,
    263297,
    263302,
    263305,
    281598,
    352389,
    352620,
    357169,
    357170,
    456131,
    456132,
    456133,
    476693,
    476706,
    476724,
    478760,
    484228,
    484242,
    486125,
    486142,
    489248,
    490974,
    500595,
    500622,
    501939,
    503586,
    508743,
    508845,
    516622,
    521045,
    522556,
    476707,
    476725,
    489249,
    490975,
    501940,
    503587,
    508744,
    508846,
    516623,
    518106,
    521046,
    522557,
    476708,
    476726,
    489250,
    490976,
    500596,
    500623,
    501941,
    503588,
    508745,
    508847,
    516624,
    518107,
    521047,
    522558,
    522558,
    476709,
    476727,
    489251,
    490977,
    501942,
    503589,
    508746,
    508848,
    516625,
    518108,
    519054,
    521048,
    522559,
    476710,
    476728,
    489252,
    490978,
    501943,
    503590,
    508747,
    508849,
    516626,
    521049,
    522560,
    476711,
    476729,
    478761,
    489253,
    490979,
    500597,
    500624,
    501944,
    503591,
    508748,
    508850,
    516627,
    521050,
    522561,
    476694,
    476712,
    476730,
    478762,
    484229,
    484243,
    486126,
    486143,
    489254,
    490980,
    500598,
    500625,
    501945,
    503592,
    508749,
    508851,
    516628,
    521051,
    522562,
    476695,
    476713,
    476731,
    478763,
    484230,
    484244,
    486127,
    486144,
    489255,
    490981,
    500599,
    500626,
    501946,
    503593,
    508750,
    508852,
    516629,
    521052,
    522563,
    476696,
    476714,
    476732,
    478764,
    484231,
    484245,
    486128,
    486145,
    489256,
    490982,
    500600,
    500627,
    501947,
    503594,
    508751,
    508853,
    516630,
    521053,
    522564,
    472369,
    476697,
    476715,
    476733,
    478765,
    484232,
    484246,
    486129,
    486170,
    489257,
    490983,
    500601,
    500628,
    501948,
    503595,
    508752,
    508854,
    516631,
    519055,
    521054,
    522565,
    472370,
    476698,
    476716,
    476734,
    478766,
    484233,
    484247,
    486130,
    486171,
    489258,
    490984,
    500602,
    500629,
    501949,
    503596,
    508753,
    508855,
    516632,
    519056,
    521055,
    522566,
    472371,
    476699,
    476717,
    476735,
    478767,
    484234,
    484248,
    486131,
    486172,
    489259,
    490985,
    500603,
    500630,
    501950,
    503597,
    508754,
    508856,
    516633,
    519057,
    521056,
    522567,
    472372,
    472378,
    476700,
    476718,
    476736,
    478768,
    484235,
    484249,
    486132,
    486173,
    489260,
    490986,
    500604,
    500631,
    501951,
    503598,
    508755,
    508857,
    516634,
    519058,
    521057,
    522568,
    472365,
    472374,
    476702,
    476720,
    476738,
    478770,
    484237,
    484251,
    486134,
    486176,
    489262,
    490988,
    500606,
    500633,
    501953,
    503600,
    508757,
    508859,
    516636,
    519060,
    521059,
    522570,
    472366,
    472375,
    476703,
    476721,
    476739,
    478771,
    484238,
    484252,
    486135,
    486177,
    489263,
    490989,
    500607,
    500634,
    501954,
    503601,
    508758,
    508860,
    516637,
    521060,
    522571,
    472367,
    472376,
    476704,
    476722,
    476740,
    478772,
    484239,
    484253,
    486136,
    486178,
    489264,
    490990,
    500608,
    500635,
    501955,
    503602,
    508759,
    508861,
    516638,
    521061,
    522572,
    472368,
    472377,
    476705,
    476723,
    476741,
    478773,
    484240,
    484254,
    486137,
    486179,
    489265,
    490991,
    500609,
    500636,
    501956,
    503603,
    508760,
    508862,
    516639,
    519061,
    521062,
    522573,
    472373,
    476701,
    476719,
    476737,
    478769,
    484236,
    484250,
    486133,
    486174,
    489261,
    490987,
    500605,
    500632,
    501952,
    503599,
    508756,
    508858,
    516635,
    519059,
    521058,
    522569,
    598824,
    598825,
    598826,
    599530,
    599531,
    599532,
    599533,
    599534,
    598832,
    599536,
    599537,
    599538,
    599539,
    599540,
    599541,
    599542,
    599543,
    599544,
    598842,
    670532,
    670533,
    670513,
    670514,
    670536,
    670537,
    670538,
    670539,
    670540,
    670541,
    670521,
    670543,
    670523,
    670545,
    670546,
    670547,
    670548,
    670549,
    670550,
    670551,
    670552,
    723400,
    723401,
    723402,
    723403,
    723408,
    723406,
    723407,
    723404,
    723405,
    721329,
    721207,
    722618,
    723606,
    732122,
    1564585,
    1564583,
    1751473,
    1751481,
    1751475,
    1751480,
    1751483,
    1751479,
    1751482,
    1751476,
    1751474,
    1751478,
    1751477,
    1751324,
    1751322,
    1751326,
    1751341,
    1751339,
    1751336,
    1751337,
    1751338,
    1751330,
    1751334,
    1751332,
    1751331,
    1751327,
    1751335,
    1751328,
    1751329,
    1751325,
    1751323,
    1751333,
    1751340,
    1682440,
    1682437,
    1682445,
    1682442,
    1682438,
    1682443,
    1682436,
    1682444,
    1682435,
    1682439,
    1682441,
    3084738,
    3084736,
    3084737,
    3084751,
    3084735,
    3175527,
    3175529,
    3175525,
    3175526,
    3175528,
    3315098,
    3315099,
    3315101,
    3315102,
    3315100
  ]
}