{
  "users": [
    {
      "id": 3518,
      "name": "Daniel Carvalho",
      "username": "daniel.carvalho",
      "email": "daniel.carvalho@celeirosementes.com.br",
      "uuid": "afea615c-e631-497f-a27b-d1ad0298afda",
      "crea": "",
      "phone": "",
      "role_label": "Administrador"
    },
    {
      "id": 12433,
      "name": "leonardo.garcia",
      "username": "leonardo.garcia",
      "email": "leonardo.garcia@gcsagro.com.br",
      "uuid": "314be79a-7424-45ab-b64e-1e06a6df3b8e",
      "crea": "",
      "phone": null,
      "role_label": "Gerente"
    },
    {
      "id": 3087,
      "name": "Silvio Tiecher",
      "username": "silvio.tiecher",
      "email": "silvio@celeirosementes.com.br",
      "uuid": "5a91c565-e049-4247-8ca3-94de6d6cfbb8",
      "crea": "",
      "phone": "061 36212946 ",
      "role_label": "Administrador"
    },
    {
      "id": 4999,
      "name": "joaquim.bonifacio",
      "username": "joaquimb",
      "email": "joaquim.bonifacio@gcsagro.com.br",
      "uuid": "a750d98e-417a-41b5-b2e2-0d2264fba0de",
      "crea": "",
      "phone": "",
      "role_label": "Administrador"
    },
    {
      "id": 3779,
      "name": "Lázaro Rodrigues Pinheiro",
      "username": "lazaro",
      "email": "nathalissa@hotmail.com",
      "uuid": "6407afbc-89c1-4d62-8027-9892a9ca00da",
      "crea": "",
      "phone": "89 999009410",
      "role_label": "Administrador"
    },
    {
      "id": 3135,
      "name": "Ciro Tiecher",
      "username": "cirot",
      "email": "ciro@celeirosementes.com.br",
      "uuid": "d7a1f6fd-4b95-4739-9f52-560093e4260a",
      "crea": "",
      "phone": "61 9831-2929",
      "role_label": "Administrador"
    },
    {
      "id": 4368,
      "name": "Francisco",
      "username": "francisco.j",
      "email": "franciscojesus1020@outlook.com",
      "uuid": "16b579f2-5af1-4d21-a414-cae88c7ae934",
      "crea": "",
      "phone": "11941736520",
      "role_label": "Padrão"
    },
    {
      "id": 14420,
      "name": "Lais Samara",
      "username": "lais.samara",
      "email": "lais.rodrigues@celeirosementes.com.br",
      "uuid": "b1a1b679-75a1-44b4-9e46-97dfe38dfda6",
      "crea": null,
      "phone": null,
      "role_label": "Administrador"
    },
    {
      "id": 14508,
      "name": "THIAGO.SILVA",
      "username": "thiago.santos",
      "email": "contabilidade@gcsagro.com.br",
      "uuid": "6ede8540-dcfd-46bd-b422-8b89cedcd1e9",
      "crea": null,
      "phone": null,
      "role_label": "Gerente"
    },
    {
      "id": 3120,
      "name": "Juliandro Dias ",
      "username": "juliandro.dias",
      "email": "juliandro.dias@celeirosementes.com.br",
      "uuid": "69ccabbd-7668-411c-9310-860351f73951",
      "crea": "",
      "phone": "77 9 9984-8177",
      "role_label": "Administrador"
    },
    {
      "id": 3611,
      "name": "Gilson Ivo Magalhães Junior",
      "username": "gilson.i",
      "email": "givomagalhaesjunior@gmail.com",
      "uuid": "0db95fe9-c040-43b5-a483-ad39799dcda6",
      "crea": "",
      "phone": "(77) 999447922",
      "role_label": "Padrão"
    },
    {
      "id": 3774,
      "name": "Leonilson Sertão dos Santos",
      "username": "sertao",
      "email": "leonilson.sertao@celeirosementes.com.br",
      "uuid": "b643caca-652b-48e0-9f15-12e8e3caeab5",
      "crea": "",
      "phone": "89 981032424",
      "role_label": "Administrador"
    },
    {
      "id": 3778,
      "name": "Gilmar Carvalho Soares",
      "username": "gilmar.soares",
      "email": "gimar.soares@celeirosementes.com.br",
      "uuid": "04d64e62-005d-4eb4-b9f5-d2c72fa8fbd8",
      "crea": "",
      "phone": "89 999154705",
      "role_label": "Gerente"
    },
    {
      "id": 3115,
      "name": "Altieres Borges Lima ",
      "username": "altieresborges",
      "email": "altieresborges1010@gmail.com",
      "uuid": "d5378e9e-72f0-4a9f-b5fe-06f48df6bd03",
      "crea": "",
      "phone": "77 9 9955-9739",
      "role_label": "Administrador"
    },
    {
      "id": 3117,
      "name": "Moisés Domiense de Souza",
      "username": "moises.s",
      "email": "moisesdomiense9977@gmail.com",
      "uuid": "ea125757-3a7b-486b-aa1d-014f8168da22",
      "crea": "",
      "phone": "7797021737",
      "role_label": "Administrador"
    }
  ],
  "next_page_url": "/api/v1/users?page=2",
  "pagination": {
    "total_entries": 66,
    "total_pages": 5,
    "per_page": 15,
    "current_page": 1
  },
  "deleted_since": [
    5358,
    7571,
    3802,
    9890,
    4300,
    8118,
    6819,
    10033,
    7653,
    8345,
    4038,
    9888,
    11921,
    3775,
    10128,
    3791,
    3804,
    10231,
    8444,
    14049,
    8200,
    8998,
    14244,
    14050,
    4241,
    6777,
    14926,
    3121,
    11409,
    4369,
    14293,
    16834,
    963,
    6820,
    16851,
    18772,
    17256,
    17996,
    18783,
    3519,
    20277,
    17697,
    12720,
    16148,
    6719,
    23217,
    3777,
    21291,
    23854,
    24129,
    24130,
    24122,
    26423,
    3368,
    24128,
    11389,
    24536,
    3776,
    24538,
    26163,
    19573
  ]
}